// ATR  : 無(0)	火(1)	水(2)	雷(3)	金(4)	光(5)	闇(6)
// TRIBE : なし(0)	基本(1)	淡(2)	濃(3)	強化種(4)	変異種(5)
NO	ATR	TRIBE	HP	MP	ATK	MGC	DEF	LUC	ADD_HP	ADD_MP	ADD_ATK	ADD_MGC	ADD_DEF	ADD_LUC	SKILL_SET	NAME	USE
11	1	1	300	300	150	100	150	100	8	5	7	4	5	3	1	ユニット火11	1
12	1	2	300	300	150	100	150	100	8	5	7	4	5	3	1	ユニット火12	0
13	1	2	300	300	150	100	150	100	8	5	7	4	5	3	1	ユニット火13	0
14	1	3	300	300	150	100	150	100	8	5	7	4	5	3	1	ユニット火14	0
15	1	3	300	300	150	100	150	100	8	5	7	4	5	3	1	ユニット火15	0
16	1	4	300	300	150	100	150	100	8	5	7	4	5	3	1	ユニット火16	0
17	1	5	300	300	150	100	150	100	8	5	7	4	5	3	1	ユニット火17	0
21	2	1	250	350	100	150	150	100	6	7	4	7	5	3	2	ユニット水21	1
22	2	2	250	350	100	150	150	100	6	7	4	7	5	3	2	ユニット水22	0
23	2	2	250	350	100	150	150	100	6	7	4	7	5	3	2	ユニット水23	0
24	2	3	250	350	100	150	150	100	6	7	4	7	5	3	2	ユニット水24	0
25	2	3	250	350	100	150	150	100	6	7	4	7	5	3	2	ユニット水25	0
26	2	4	250	350	100	150	150	100	6	7	4	7	5	3	2	ユニット水26	0
27	2	5	250	350	100	150	150	100	6	7	4	7	5	3	2	ユニット水27	0
31	3	1	250	350	130	120	150	100	5	8	5	6	4	4	3	ユニット雷31	1
32	3	2	250	350	130	120	150	100	5	8	5	6	4	4	3	ユニット雷32	0
33	3	2	250	350	130	120	150	100	5	8	5	6	4	4	3	ユニット雷33	0
34	3	3	250	350	130	120	150	100	5	8	5	6	4	4	3	ユニット雷34	0
35	3	3	250	350	130	120	150	100	5	8	5	6	4	4	3	ユニット雷35	0
36	3	4	250	350	130	120	150	100	5	8	5	6	4	4	3	ユニット雷36	0
37	3	5	250	350	130	120	150	100	5	8	5	6	4	4	3	ユニット雷37	0
41	4	1	350	200	125	100	200	100	9	6	6	5	7	3	4	ユニット金41	1
42	4	2	350	200	125	100	200	100	9	6	6	5	7	3	4	ユニット金42	0
43	4	2	350	200	125	100	200	100	9	6	6	5	7	3	4	ユニット金43	0
44	4	3	350	200	125	100	200	100	9	6	6	5	7	3	4	ユニット金44	0
45	4	3	350	200	125	100	200	100	9	6	6	5	7	3	4	ユニット金45	0
46	4	4	350	200	125	100	200	100	9	6	6	5	7	3	4	ユニット金46	0
47	4	5	350	200	125	100	200	100	9	6	6	5	7	3	4	ユニット金47	0
51	5	1	300	300	150	100	150	100	7	7	6	6	6	3	5	ユニット光51	1
52	5	2	300	300	150	100	150	100	7	7	6	6	6	3	5	ユニット光52	0
53	5	2	300	300	150	100	150	100	7	7	6	6	6	3	5	ユニット光53	0
54	5	3	300	300	150	100	150	100	7	7	6	6	6	3	5	ユニット光54	0
55	5	3	300	300	150	100	150	100	7	7	6	6	6	3	5	ユニット光55	0
56	5	4	300	300	150	100	150	100	7	7	6	6	6	3	5	ユニット光56	0
57	5	5	300	300	150	100	150	100	7	7	6	6	6	3	5	ユニット光57	0
61	6	1	300	300	150	100	150	100	7	7	6	6	6	3	6	ユニット闇61	1
62	6	2	300	300	150	100	150	100	7	7	6	6	6	3	6	ユニット闇62	0
63	6	2	300	300	150	100	150	100	7	7	6	6	6	3	6	ユニット闇63	0
64	6	3	300	300	150	100	150	100	7	7	6	6	6	3	6	ユニット闇64	0
65	6	3	300	300	150	100	150	100	7	7	6	6	6	3	6	ユニット闇65	0
66	6	4	300	300	150	100	150	100	7	7	6	6	6	3	6	ユニット闇66	0
67	6	5	300	300	150	100	150	100	7	7	6	6	6	3	6	ユニット闇67	0
71	0	5	300	300	140	110	140	110	8	7	6	6	6	3	7	ユニット無71	0
72	0	5	300	300	140	110	140	110	8	7	6	6	6	3	7	ユニット無72	0
73	0	5	300	300	140	110	140	110	8	7	6	6	6	3	7	ユニット無73	0