_/_/_/_/_/_/_/_/_/_/_/_/_/_/_/_/_/_/_/_/_/_/_/_/_/_/_/_/_/_/_/_/_/_/_/_/
■ゲーム概要
・最大4人によるバトルロイヤル形式でのポイントの奪い合い。
※指定バトルターンでのコマンド入力方式


_/_/_/_/_/_/_/_/_/_/_/_/_/_/_/_/_/_/_/_/_/_/_/_/_/_/_/_/_/_/_/_/_/_/_/_/
■ゲームの流れ（サイクル）
育成パート → 融合パート → バトルパート → 育成パート


_/_/_/_/_/_/_/_/_/_/_/_/_/_/_/_/_/_/_/_/_/_/_/_/_/_/_/_/_/_/_/_/_/_/_/_/
■ゲームパートメモ
育成パート
・ユニット入手（ゲーム内通貨を消費して買う？）
・模擬戦（戦闘結果によってステータスを上昇させる）
　└使えるスキルは固定（最小構成）
・戦闘準備
　└装備変更　→　装備は一つのみ
　└装備売却　→　ゲーム内通貨獲得
（　└装備錬金　→　一つスキルを付与できるorステータスをいづれか大幅強化）
　└スキル変更

融合パート
・魂化（20体まで※仮）
　└いつでも出来る
・融合（魂化ユニット2体て新たなユニットを作成する）
・コード化（手持ちから無くなる）

バトルパート
・フリーバトル
・レートバトル（シーズン制）


_/_/_/_/_/_/_/_/_/_/_/_/_/_/_/_/_/_/_/_/_/_/_/_/_/_/_/_/_/_/_/_/_/_/_/_/
■スキル習得方法
案１：バトルパートでいづれかのバトル後ステータス基準で習得
案２：バトルパートでいづれかのバトル、スキルポイントを付与。ポイントを割り振り習得






_/_/_/_/_/_/_/_/_/_/_/_/_/_/_/_/_/_/_/_/_/_/_/_/_/_/_/_/_/_/_/_/_/_/_/_/
■バトルメモ（箇条書き）
・開始時にポイントを付与する（500くらい）
・勝敗は所持ポイントで決定する。ポイントの奪い合い
・対戦人数は最大4人※集まらなければCPU
・バトルは全5ターン（暫定）
・ターン毎の入力待ち受け時間は4秒（暫定）（可変）
・スキルアイコンをタップすることでスキル選択とする。
・相手ユニットをタップすることで対象選択とする。
・「対象」をタップした際にその相手の方を向く。
・コマンドの決定は「対象」＋「スキル」で決定する。
・待ち受け時間内なら何回でも「スキル」、「対象」の選択が行える。
・ユニットの最大スキル数は8個まで、最小は１つとする。
・バトルの行動順は、ガード技➝シールド技➝補助技➝SPDの高いスキルを選択したユニットから攻撃（物理、魔法）
・MPはターンの開始時に40回復する（暫定）※１ターン目は回復しない。

_/_/_/_/_/_/_/_/_/_/_/_/_/_/_/_/_/_/_/_/_/_/_/_/_/_/_/_/_/_/_/_/_/_/_/_/
■ポイントの移動
・バトル開始時に一定量付与（500くらい）
・ダメージを与える。
　└魔法：与えたダメージの2倍ポイント獲得　※300与えた場合600獲得
　└物理：与えたダメージの半分ポイント獲得　※300与えた場合150獲得
・ダメージを受ける。
　└魔法：受けたダメージの2倍ポイント喪失　※300受けた場合600喪失
　└物理：受けたダメージの半分ポイント喪失　※300受けた場合150喪失
・気絶させた場合（HP0状態）
　└対象の全ポイントを獲得
・気絶した場合（HP0状態）
　└対象の全ポイントを喪失


_/_/_/_/_/_/_/_/_/_/_/_/_/_/_/_/_/_/_/_/_/_/_/_/_/_/_/_/_/_/_/_/_/_/_/_/
■UI仕様
・現在のターン数と最大ターン数を表示する（n/5）
・自身ユニットのステータスを表示する（HP,MP,所持ポイント）
・相手ユニットのステータスを表示する（HP,所持ポイント）
・ターン開始時に入力受付中を表すプログレスバーを表示する。
・スキル選択アイコンをスキルアイコンに表示する。
・ターン開始時はスキル選択アイコンを非表示にする。


_/_/_/_/_/_/_/_/_/_/_/_/_/_/_/_/_/_/_/_/_/_/_/_/_/_/_/_/_/_/_/_/_/_/_/_/
■ステータス影響
・HP	➝最大HP
・MP	➝最大MP
・ATK	➝物理攻撃力
・MGC	➝魔法攻撃力
・DEF	➝防御力
・LUC	➝クリティカル発生率
※バトル開始時のステータス


_/_/_/_/_/_/_/_/_/_/_/_/_/_/_/_/_/_/_/_/_/_/_/_/_/_/_/_/_/_/_/_/_/_/_/_/
■レート
ポケモンで使われているレーティング計算式を使用してみる
	勝利時に加算される値 ＝ 16 ＋（相手のレート － 自分のレート）× 0.04
	敗北時に減算される値 ＝ 16 ＋（自分のレート － 相手のレート）× 0.04

	つまりレートが同じなら16変動し、レート差25ごとに1増減する。
	※小数点以下、切り捨て	
	※レート差が400以上差がある場合、勝利時に加算される値はゼロ

　1位は2、3、4位と勝利状態でレート計算
　2位は3、4位と勝利状態で、1、2と敗北状態レート計算
　3位は4位と勝利状態で、1、2、3と敗北状態でレート計算
　4位は1、2、3位とは敗北状態でレート計算


_/_/_/_/_/_/_/_/_/_/_/_/_/_/_/_/_/_/_/_/_/_/_/_/_/_/_/_/_/_/_/_/_/_/_/_/
■バトルの流れ（マッチング後から）
０：ポイント加算演出（全員に一定値加算：500くらい？）
１：バトル開始演出
２：ターン開始演出（表記は「１／５」など）
　└状態異常経過
　└フィールド効果演出？
３：入力受付開始。プログレスバー的なのが動く
４：スキルアイコン、敵ユニットを自由にタップできる。（入力受付中）
　└スキルを選択肢ないと、未行動になる。
　└敵ユニット未選択時は対角のユーザーにする。
　└敵ユニットをタップするとターゲットの方を向く
５：入力受付時間が終了
６：スキル解決
　└行動順は、ガード技➝シールド技　➝　補助技　➝　SPDの高いスキルを選択したプレイヤーから攻撃（物理、魔法）
７：MP回復演出（固定値）
８：２から再度ループ
９：結果画面へ
１０：レート変動がある場合はここタイミングで行う



_/_/_/_/_/_/_/_/_/_/_/_/_/_/_/_/_/_/_/_/_/_/_/_/_/_/_/_/_/_/_/_/_/_/_/_/
■所持装備品情報（トランザクション）
・トランザクションID
・武器ID
・お気に入りフラグ
・レベル
・スキルID（最初はいらない？）
・状態フラグ（削除、等）
・作成日
・更新日


_/_/_/_/_/_/_/_/_/_/_/_/_/_/_/_/_/_/_/_/_/_/_/_/_/_/_/_/_/_/_/_/_/_/_/_/
■スキルメモ
●Skill.csvのDetailについて
形式はjsonとして扱う
全体攻撃、全体魔法は絶対作らない！

内容※箇条書き
・番号
・名前
・種類：物理攻撃、魔法攻撃、ガード、シールド、補助
・対象：自身(1)、相手(2)
・人数：1~4
・消費パラメータ：HP,MP,ATK,MGC,DEF,LUC
・ランク
・行動速度：超遅い,遅い,普通,速い,最速
・属性：無(0),火(1),水(2),雷(3),金(4),光(5),闇(6)
・効果値（実際のダメージ基礎値、回復基礎値など）
・効果ターン；1~n
・付与状態異常：なし,火傷,魔法禁止,麻痺,ふっ飛ばし,混乱,攻撃禁止,気絶
・付与状態異常耐性：火傷,魔法禁止,麻痺,ふっ飛ばし,混乱,攻撃禁止
・エフェクト：再生させるエフェクトファイル
・コメント

JSONイメージ
例）MP10消費で敵一体に約100のダメージを与える
[
  {
    "target": "enemy",
    "count": 1,
    "turn": 1,
    "paraemter": "HP",
    "value": 100,
    "abnormal": []
  }
]

例）MP50消費で敵一体に約150のダメージを与え、与えた分回復させる
[
  {
    "target": "enemy",
    "count": 1,
    "turn": 1,
    "parameter": "HP",
    "value": 150,
    "abnormal": []
  },
  {
    "target": "myself",
    "count": 1,
    "turn": 1,
    "parameter": "HP",
    "value": "add_enemy_value",
    "abnormal": []
  }
]


例）MP30消費で敵一体に約100のダメージを与え30%の確率で火傷を付与する
[
  {
    "target": "enemy",
    "count": 1,
    "turn": 1,
    "parameter": "HP",
    "value": 100,
    "abnormal": [
      {
        "effect": "ADD",
        "type": "BURN",
        "rate": 30
      }
    ]
  }
]

例）MP30消費で3ターン麻痺耐性を上げる
[
  {
    "target": "myself",
    "count": 1,
    "turn": 3,
    "parameter": "none",
    "value": 0,
    "abnormal": [
      {
        "effect": "REGIST",
        "type": "PARALYSIS",
        "rate": 100
      }
    ]
  }
]


_/_/_/_/_/_/_/_/_/_/_/_/_/_/_/_/_/_/_/_/_/_/_/_/_/_/_/_/_/_/_/_/_/_/_/_/
■状態異常メモ
・同時に掛かる状態異常は一つまでとする。
・気絶以外の継続ターンは2ターンとする。
・気絶のみ継続ターンを1ターンとする。

状態異常概要
・なし(正常)
・火傷　→　自身の行動後に割合でダメージを食らう。HPが0になった場合は気絶する。
・魔法攻撃禁止　→　魔法攻撃が行えなくなる。
・麻痺　→　行動できなくなる。
・ふっ飛ばし　→　行動できなくなる。攻撃対象から除外される。
・混乱　→　自身が設定しているスキルをランダムで使用する。対象もランダム。MPも消費する。
・物理攻撃禁止　→　物理攻撃が行えなくなる。
・気絶　→　行動できなくなる。攻撃対象から除外される。HP0状態



_/_/_/_/_/_/_/_/_/_/_/_/_/_/_/_/_/_/_/_/_/_/_/_/_/_/_/_/_/_/_/_/_/_/_/_/
■起動方法
unityのメニュー➝「Build Settings」で実行したいシーンを選びます
一通りの動作を確認したい場合は
Scenes/Title
Scenes/CharaSelect
Scenes/Room
Scenes/Battle
で並べ替えてチェックを付ける
※CharaEditは未実装
