%YAML 1.1
%TAG !u! tag:unity3d.com,2011:
--- !u!114 &11400000
MonoBehaviour:
  m_ObjectHideFlags: 0
  m_CorrespondingSourceObject: {fileID: 0}
  m_PrefabInstance: {fileID: 0}
  m_PrefabAsset: {fileID: 0}
  m_GameObject: {fileID: 0}
  m_Enabled: 1
  m_EditorHideFlags: 0
  m_Script: {fileID: 11500000, guid: a6e950a9925580647a8c67e402fa8c87, type: 3}
  m_Name: TestBattleData
  m_EditorClassIdentifier: 
  InitialHP: 400
  InitialMP: 100
  InitStartPoint: 200
  MaxBattleTurn: 1
  InputLatency: 5
  RecoveryMPValue: 10
